id,cts,author,title,date
01,tlg0003.tlg001,Thucydides,History of the Peloponnesian War,—0429-01/—0409-12
02,tlg0005,Theocritus,Fragments,—0299-01/—0259-12
03,tlg0006.tlg003,Euripides,Medea,—0430-01/—0430-12
04,tlg0007.tlg004,Plutarch,Lycurgus,+0096-01/+0120-12
05,tlg0007.tlg015,Plutarch,Alcibiades,+0096-01/+0120-12
06,tlg0007.tlg086,Plutarch,On the Fortunes of the Romans,+0060-01/+0065-12
07,tlg0007.tlg087,Plutarch,On the Fortune or the Virtue of Alexander I and II,+0096-01/+0120-12
08,tlg0008.tlg001,Athenaeus of Naucratis,The Deipnosophists,+0175-01/+0200-12
09,tlg0009.tlg001,Sappho,Fragments,
10,tlg0010.tlg002,Isocrates,Against Callimachus,—0401-01/—0401-12
11,tlg0010.tlg020,Isocrates,To Philip,—0345-01/—0345-12
12,tlg0011.tlg001,Sophocles,Trachiniae,—0449-01/—0449-12
13,tlg0011.tlg002,Sophocles,Antigone,—0442-01/—0437-12<
14,tlg0011.tlg003,Sophocles,Ajax,—0438-01/—0435-12
15,tlg0011.tlg004,Sophocles,Oedipus Tyrannus,0418-01/—0415-12
16,tlg0011.tlg005,Sophocles,Electra,—0417-01/—0406-12
17,tlg0012.tlg001,Homer,Iliad,—0799-01/—0700-12
18,tlg0012.tlg002,Homer,Odyssey,—0799-01/—0700-12
19,tlg0013.tlg002,Homeric Hymns,Hymn 2 to Demeter,-0624-01/—0574-12
20,tlg0014.tlg001,Demosthenes,First Olynthiac,—0348-01/—0348-12
21,tlg0014.tlg004,Demosthenes,First Philippic,—0350-01/—0350-12
22,tlg0014.tlg007,Demosthenes,On Halonnesus,—0342-01/—0341-12
23,tlg0014.tlg017,Demosthenes,On the Treaty with Alexander,—0330-01/—0330-12
24,tlg0014.tlg018,Demosthenes,On the Crown_De Corona,—0329-01/—0329-12
25,tlg0014.tlg027,Demosthenes,Against Aphobus I,—0363-01/—0362-12
26,tlg0014.tlg036,Demosthenes,For Phormio,—0349-01/—0348-12
27,tlg0014.tlg037,Demosthenes,Against Pantaenetus,—0346-01/—0346-12
28,tlg0014.tlg039,Demosthenes,Against Boeotus I,—0347-01/—0346-12
29,tlg0014.tlg041,Demosthenes,Against Spudias,
30,tlg0014.tlg042,Demosthenes,Against Phaenippus,—0329-01/—0329-12
31,tlg0014.tlg045,Demosthenes,Against Stephanus I,—0349-01/—0348-12
32,tlg0014.tlg046,Demosthenes,Against Stephanus II,—0354-01/—0354-12
33,tlg0014.tlg047,Demosthenes,Against Evergus and Mnesibulus,—0354-01/—0354-12
34,tlg0014.tlg049,Demosthenes,Apollodorus Against Timotheus,—0361-01/—0361-12
35,tlg0014.tlg050,Demosthenes,Apollodorus Against Polycles,—0359-01/—0359-12
36,tlg0014.tlg052,Demosthenes,Apollodorus Against Callippus,—0368-01/—0367-12
37,tlg0014.tlg053,Demosthenes,Apollodorus Against Nicostratus,—0367-01/—0366-12
38,tlg0014.tlg054,Demosthenes,Against Conon,—0354-01/—0340-12
39,tlg0014.tlg057,Demosthenes,Against Eubulides,—0345-01/—0344-12
40,tlg0014.tlg059,Demosthenes,Theomnestus and Apollodorus Against Neaera,—0342-01/—0339-12
41,tlg0016.tlg001,Herodotus,Histories,—429-01/—429-12
42,tlg0017.tlg003,Isaeus,Pyrrhus,—388-01/—388-12
43,tlg0019.tlg001,Aristophanes,Acharnians,—424-01/—424-12
44,tlg0019.tlg008,Aristophanes,Thesmophoriazusae,—410-01/—410-12
45,tlg0020.tlg001,Hesiod,Theogony,—729-01/—699-12
46,tlg0020.tlg002,Hesiod,Works and Days,—699-01/—699-12
47,tlg0020.tlg003,Hesiod,Shield of Heracles,—599-01/—599-12
48,tlg0026.tlg001,Aeschines,Against Timarchus,—345-01/—345-12
49,tlg0027.tlg001,Andocides,De mysteriis,
50,tlg0028.tlg001,Antiphon,Against the Stepmother for Poisoning,—418-01/—413-12
51,tlg0028.tlg002,Antiphon,First Tetralogy,
52,tlg0028.tlg005,Antiphon,On the murder of Herodes,—412-01/—412-12
53,tlg0028.tlg006,Antiphon,On the Choreutes,—411-01/—411-12
54,tlg0032.tlg001,Xenophon,Hellenica,
55,tlg0032.tlg002,Xenophon,Memorabilia,
56,tlg0032.tlg004,Xenophon,Symposium,
57,tlg0032.tlg006,Xenophon,Anabasis,
58,tlg0032.tlg007,Xenophon,Cyropaedia,
59,tlg0032.tlg008,Xenophon,Hiero,
60,tlg0032.tlg015,Xenophon,Constitution of the Athenians,
61,tlg0041.tlg001,Chionis Epistula,Epistulae,
62,tlg0058.tlg001,Aeneas Tacticus,Poliorcetica,
63,tlg0059.tlg001,Plato,Euthyphro,
64,tlg0059.tlg002,Plato,Apology,
65,tlg0059.tlg003,Plato,Crito,
66,tlg0059.tlg029,Plato,Cleitophon,
67,tlg0060.tlg001,Diodorus Siculus,Historical Library
68,tlg0061.tlg001,Lucian of Samosata,Asinus,
69,tlg0081.tlg001,Dionysius of Halicarnassus,Roman Antiquities,
70,tlg0085.tlg001,Aeschylus,Suppliant Maidens,
71,tlg0085.tlg002,Aeschylus,Persians,
72,tlg0085.tlg003,Aeschylus,Prometheus Bound,
73,tlg0085.tlg004,Aeschylus,Seven Against Thebes,
74,tlg0085.tlg005,Aeschylus,Agamemnon,
75,tlg0085.tlg006,Aeschylus,Choephoroe,
76,tlg0085.tlg007,Aeschylus,Eumenides,
77,tlg0086.tlg035,Aristotle,Politics,
78,tlg0093.tlg009,Theophrastus,Characters,
79,tlg0096.tlg002,Aesop,Aesop's fables,
80,tlg0255.tlg001,Mimnermus of Colophon,Fragmenta,
81,tlg0260,Semonides, of Amorgos,Fragmenta,
82,tlg0343.tlg001,Ezechiël,Exagogè,
83,tlg0429.tlg001,Procopius,
84,tlg0526.tlg004,Flavius Josephus,The Wars of the Jews,
85,tlg0527.tlg001,Old Testament,Genesis,
86,tlg0537.tlg012,Epicurus,Epistula ad Menoeceum,
87,tlg0540.tlg001,Lysias,On the Murder of Eratosthenes,
88,tlg0540.tlg012,Lysias,Against Eratosthenes,
89,tlg0540.tlg013,Lysias,Against Agoratus,
90,tlg0540.tlg014,Lysias,Against Alcibiades 1,
91,tlg0540.tlg015,Lysias,Against Alcibiades 2,
92,tlg0540.tlg019,Lysias,On the Property of Aristophanes,
93,tlg0540.tlg023,Lysias,Against Pancleon
94,tlg0540.tlg024,Lysias,On the Refusal of a Pension,
95,tlg0541.tlg007,Menander of Athens,Dyscolus,
96,tlg0543.tlg001,Polybius,Histories,
97,tlg0544.tlg002,Sextus Empiricus,Adversos Mathematicos,
98,tlg0548.tlg001,Apollodorus,Bibliotheca,
99,tlg0551.tlg017,Appianus of Alexandria,Civil Wars,
100,tlg0554.tlg001,Chariton,De Chaerea et Callirhoe,
101,tlg0559.tlg002,Hero of Alexandria,De Automatis,
102,tlg0561.tlg001,Longus,Daphnis and Chloe,
103,tlg0585.tlg001,Phlegon,Bool of Marvels,
104,tlg1220.tlg001,Batrachomyomachia,Batrachomyomachia Homerica
105,tlg2003.tlg001,Julian,Panegyric in Honor of the Emperor Constantinus,
106,tlgxxxx.tlgxxx,Paenius,Breviarium,
107,tlg4100.tlg001,Aphthonius,Progymnasmata,
